#1060 - Irkutsk

owner = KHA
controller = KHA
add_core = KHA
culture = buryat
religion = tengri_pagan_reformed
capital = "Irkutsk"
trade_goods = fur
hre = no
base_tax = 1 
base_production = 1
base_manpower = 1
is_city = yes



discovered_by = nomad_group
discovered_by = BRT


1633.1.1 = {
	discovered_by = RUS
	owner = RUS
	controller = RUS
	religion = orthodox
	culture = russian
	is_city = yes
}
1634.1.1 = { add_core = RUS }
