#4196 - Haizhou

owner = MNG
controller = MNG
add_core = MNG
culture = jianghuai
religion = confucianism
capital = "Haizhou"
trade_goods = fish
hre = no
base_tax = 3 
base_production = 3
base_manpower = 2
is_city = yes

extra_cost = 10

discovered_by = chinese
discovered_by = nomad_group

1519.1.1 = { discovered_by = POR } # Tome Pires
1645.6.1 = {
	owner = QNG
	controller = QNG
	add_core = QNG
}